0.00000,-138.31826,0.00000,0.01152
0.00030,-138.23953,0.05000,0.01152
0.00060,-138.16080,0.10000,0.01152
0.00090,-138.08206,0.15000,0.01152
0.00120,-138.00333,0.20000,0.01152
0.00150,-137.92459,0.25000,0.01152
0.00180,-137.84586,0.30000,0.01152
0.00210,-137.76712,0.35000,0.01152
0.00240,-137.68839,0.40000,0.01152
0.00270,-137.60966,0.45000,0.01152
0.00300,-137.53092,0.50000,0.01152
0.00330,-137.45219,0.55000,0.01152
0.00360,-137.37345,0.60000,0.01152
0.00390,-137.29472,0.65000,0.01152
0.00420,-137.21598,0.70000,0.01152
0.00450,-137.13725,0.75000,0.01152
0.00480,-137.05851,0.80000,0.01152
0.00510,-136.97978,0.85000,0.01152
0.00540,-136.90105,0.90000,0.01152
0.00570,-136.82231,0.95000,0.01152
0.00600,-136.74358,1.00000,-nan
0.00630,-136.66484,1.05000,0.01152
0.00660,-136.58611,1.10000,0.01152
0.00690,-136.50737,1.15000,0.01152
0.00720,-136.42864,1.20000,0.01152
0.00750,-136.34990,1.25000,0.01152
0.00780,-136.27117,1.30000,0.01152
0.00810,-136.19243,1.35000,0.01152
0.00840,-136.11370,1.40000,0.01152
0.00870,-136.03496,1.45000,0.01152
0.00900,-135.95623,1.50000,0.01152
0.00930,-135.87750,1.55000,0.01152
0.00960,-135.79876,1.60000,0.01152
0.00990,-135.72003,1.65000,0.01152
0.01020,-135.64129,1.70000,0.01152
0.01050,-135.56256,1.75000,0.01152
0.01080,-135.48382,1.80000,0.01152
0.01110,-135.40509,1.85000,0.01152
0.01140,-135.32636,1.90000,0.01152
0.01170,-135.24762,1.95000,0.01152
0.01200,-135.16889,2.00000,0.01152
