 
0	0.00	0.00	0.00	   
1	2.94	3.78	0.88	   
2	4.36	4.85	3.15	   
3	4.76	5.12	3.87	   
4	4.88	5.18	4.17	   
5	4.85	5.11	4.25	   
6	4.75	4.94	4.21	   
7	4.61	4.86	4.11	   
8	4.45	4.65	3.97	   
9	4.28	4.48	3.83	   
10	4.13	4.31	3.72	   
11	3.96	4.14	3.49	   
12	3.80	3.97	3.39	   
13	3.64	3.81	3.25	   
14	3.49	3.66	3.11	   
15	3.35	3.51	2.98	   
16	3.21	3.36	2.85	   
17	3.07	3.22	2.72	   
18	2.94	3.08	2.60	   
19	2.81	2.95	2.49	   
20	2.69	2.83	2.37	 



   
