 
0	0.00	   
1	2.34	   
2	2.44	   
3	2.40	   
4	2.36	   
5	2.31	   
6	2.27	   
7	2.22	   
8	2.18	   
9	2.13	   
10	2.09	   
11	2.05	   
12	2.01	   
13	1.97	   
14	1.93	   
15	1.89	   
16	1.85	   
17	1.81	   
18	1.78	   
19	1.74	   
20	1.71	 



 



