slope,-0.03046,-0.03046,-0.03046,-0.03046,
agn,0.01152,0.01152,0.01152,0.01152,
bgc,-0.02795,-0.02795,-0.02795,-0.02795,
intercept,-0.01203,-0.01203,-0.01203,-0.01203,
root_to_shoot,-0.02093,-0.02093,-0.02093,-0.02093,
agc,-0.0535,-0.0535,-0.0535,-0.0535,
yield,-0.03916,-0.03916,-0.03916,-0.03916,
left_in_field,-0.03625,-0.03938,-0.04876,-0.05502,
bgn,0.00702,0.00702,0.00702,0.00702,
yield_baseline,0.01368,0.01368,0.01368,0.01368,
