year,stand_dens
0.00000,5.23389
1.00000,1.26373
2.00000,1.77155
3.00000,1.17879
4.00000,0.70275
5.00000,0.31323
6.00000,-0.01599
7.00000,-0.30734
8.00000,11.80653
9.00000,-0.93121
10.00000,0.57101
11.00000,0.24532
12.00000,-0.01812
13.00000,-0.25536
14.00000,-0.47721
15.00000,-0.69171
16.00000,-0.90472
17.00000,-1.12050
18.00000,-1.34211
19.00000,-1.57179
20.00000,-1.81118
21.00000,-2.06148
22.00000,-2.32358
23.00000,-2.59809
24.00000,-2.88538
25.00000,-3.18562
26.00000,-3.49875
27.00000,-3.82450
28.00000,-4.16233
29.00000,-4.51143
30.00000,-4.87072
31.00000,-5.23876
32.00000,-5.61379
33.00000,-5.99365
34.00000,-6.37580
35.00000,-6.75730
36.00000,-7.13481
37.00000,-7.50460
38.00000,-7.86257
39.00000,-8.20431
40.00000,-8.52517
41.00000,-8.82032
42.00000,-9.08486
43.00000,-9.31395
44.00000,-9.50294
45.00000,-9.64752
46.00000,-9.74386
47.00000,-9.78873
48.00000,-9.77973
49.00000,-9.71527
