year,stand_dens
0.00000,4.69978
1.00000,3.14873
2.00000,2.72954
3.00000,2.24249
4.00000,1.88878
5.00000,1.62727
6.00000,1.42868
7.00000,1.27218
8.00000,3.70554
9.00000,1.01304
10.00000,1.27759
11.00000,1.17144
12.00000,1.08338
13.00000,1.00441
14.00000,0.93126
15.00000,0.86158
16.00000,0.79366
17.00000,0.72631
18.00000,0.65868
19.00000,0.59016
20.00000,0.52028
21.00000,0.44874
22.00000,0.37530
23.00000,0.29978
24.00000,0.22209
25.00000,0.14217
26.00000,0.06001
27.00000,-0.02435
28.00000,-0.11081
29.00000,-0.19921
30.00000,-0.28935
31.00000,-0.38093
32.00000,-0.47359
33.00000,-0.56691
34.00000,-0.66036
35.00000,-0.75335
36.00000,-0.84518
37.00000,-0.93510
38.00000,-1.02226
39.00000,-1.10576
40.00000,-1.18465
41.00000,-1.25792
42.00000,-1.32459
43.00000,-1.38364
44.00000,-1.43413
45.00000,-1.47517
46.00000,-1.50596
47.00000,-1.52586
48.00000,-1.53437
49.00000,-1.53116
