year,stand_dens
0.00000,4.88556
1.00000,2.49308
2.00000,2.39632
3.00000,1.87250
4.00000,1.47625
5.00000,1.17022
6.00000,0.92619
7.00000,0.72278
8.00000,6.52327
9.00000,0.33678
10.00000,1.03182
11.00000,0.84931
12.00000,0.70025
13.00000,0.56623
14.00000,0.44136
15.00000,0.32130
16.00000,0.20292
17.00000,0.08394
18.00000,-0.03724
19.00000,-0.16183
20.00000,-0.29066
21.00000,-0.42438
22.00000,-0.56344
23.00000,-0.70817
24.00000,-0.85877
25.00000,-1.01532
26.00000,-1.17782
27.00000,-1.34614
28.00000,-1.52003
29.00000,-1.69912
30.00000,-1.88287
31.00000,-2.07061
32.00000,-2.26149
33.00000,-2.45447
34.00000,-2.64834
35.00000,-2.84168
36.00000,-3.03288
37.00000,-3.22014
38.00000,-3.40150
39.00000,-3.57482
40.00000,-3.73787
41.00000,-3.88832
42.00000,-4.02381
43.00000,-4.14201
44.00000,-4.24067
45.00000,-4.31772
46.00000,-4.37132
47.00000,-4.39991
48.00000,-4.40232
49.00000,-4.37781
