rain,temp,et,sc
184.37,27.7,163.68,1
173.72,27.3,138.32,1
97.89,26.9,142.6,1
48.63,25.2,117.6,1
19.61,22.9,101.06,1
16.49,20.8,84.6,1
10.37,20.4,90.21,1
18.44,21.8,115.01,0
4.3,24,143.1,0
15.9,25.7,169.26,0
82.95,26.8,167.7,0
167.72,27.4,162.44,0
