 
0	0.00	0.00	0.00	   
1	-0.63	0.29	-2.68	   
2	-0.17	0.54	-1.74	   
3	0.08	0.67	-1.21	   
4	0.26	0.75	-0.83	   
5	0.38	0.81	-0.56	   
6	0.46	0.84	-0.36	   
7	0.52	0.86	-0.22	   
8	0.55	0.86	-0.12	   
9	0.57	0.86	-0.06	   
10	0.58	0.85	-0.01	   
11	0.58	0.84	0.02	   
12	0.57	0.82	0.04	   
13	0.56	0.81	0.05	   
14	0.55	0.79	0.05	   
15	0.54	0.77	0.05	   
16	0.52	0.75	0.04	   
17	0.50	0.72	0.04	   
18	0.49	0.70	0.03	   
19	0.47	0.68	0.02	   
20	0.45	0.66	0.01	 
 

   
