1.00000,-121.66742,0.10000,-0.09203
2.00000,-127.86456,0.20000,-0.04514
3.00000,-131.22574,0.30000,-0.01539
4.00000,-132.04977,0.40000,-0.00760
5.00000,-131.54344,0.50000,-0.01675
6.00000,-132.85995,0.60000,0.00387
7.00000,-132.74025,0.70000,0.00215
8.00000,-133.24794,0.80000,0.02236
9.00000,-133.89838,0.90000,0.09375
10.00000,-132.65470,1.00000,-nan
11.00000,-134.15329,1.10000,-0.11297
12.00000,-133.63391,1.20000,-0.03691
13.00000,-134.49325,1.30000,-0.04620
14.00000,-134.40906,1.40000,-0.03306
15.00000,-134.24439,1.50000,-0.02397
16.00000,-133.81444,1.60000,-0.01457
17.00000,-134.70815,1.70000,-0.02211
18.00000,-134.68221,1.80000,-0.01911
19.00000,-134.65153,1.90000,-0.01673
20.00000,-134.61289,2.00000,-0.01476
