0.00000,-135.05406,0.00000,-0.01652
0.05000,-135.16751,0.05000,-0.01652
0.10000,-135.28096,0.10000,-0.01652
0.15000,-135.39441,0.15000,-0.01652
0.20000,-135.50785,0.20000,-0.01652
0.25000,-135.62130,0.25000,-0.01652
0.30000,-135.73475,0.30000,-0.01652
0.35000,-135.84820,0.35000,-0.01652
0.40000,-135.96165,0.40000,-0.01652
0.45000,-136.07510,0.45000,-0.01652
0.50000,-136.18855,0.50000,-0.01652
0.55000,-136.30200,0.55000,-0.01652
0.60000,-136.41545,0.60000,-0.01652
0.65000,-136.52890,0.65000,-0.01652
0.70000,-136.64235,0.70000,-0.01652
0.75000,-136.75580,0.75000,-0.01652
0.80000,-136.86925,0.80000,-0.01652
0.85000,-136.98270,0.85000,-0.01652
0.90000,-137.09615,0.90000,-0.01652
0.95000,-137.20960,0.95000,-0.01652
1.00000,-137.32305,1.00000,-nan
1.05000,-137.43650,1.05000,-0.01652
1.10000,-137.54995,1.10000,-0.01652
1.15000,-137.66340,1.15000,-0.01652
1.20000,-137.77685,1.20000,-0.01652
1.25000,-137.89030,1.25000,-0.01652
1.30000,-138.00375,1.30000,-0.01652
1.35000,-138.11720,1.35000,-0.01652
1.40000,-138.23065,1.40000,-0.01652
1.45000,-138.34410,1.45000,-0.01652
1.50000,-138.45755,1.50000,-0.01652
1.55000,-138.57100,1.55000,-0.01652
1.60000,-138.68445,1.60000,-0.01652
1.65000,-138.79790,1.65000,-0.01652
1.70000,-138.91135,1.70000,-0.01652
1.75000,-139.02479,1.75000,-0.01652
1.80000,-139.13824,1.80000,-0.01652
1.85000,-139.25169,1.85000,-0.01652
1.90000,-139.36514,1.90000,-0.01652
1.95000,-139.47859,1.95000,-0.01652
2.00000,-139.59204,2.00000,-0.01652
