year,emissions
0.00000,-0.18881
1.00000,-2.45289
2.00000,-1.38689
3.00000,-1.41559
4.00000,-1.48766
5.00000,-1.58276
6.00000,-1.69201
7.00000,-1.81328
8.00000,8.30244
9.00000,-2.16652
10.00000,-0.87088
11.00000,-1.09318
12.00000,-1.27050
13.00000,-1.43071
14.00000,-1.58145
15.00000,-1.72850
16.00000,-1.87611
17.00000,-2.02739
18.00000,-2.18459
19.00000,-2.34938
20.00000,-2.52299
21.00000,-2.70630
22.00000,-2.90000
23.00000,-3.10452
24.00000,-3.32015
25.00000,-3.54700
26.00000,-3.78500
27.00000,-4.03388
28.00000,-4.29321
29.00000,-4.56230
30.00000,-4.84022
31.00000,-5.12580
32.00000,-5.41755
33.00000,-5.71368
34.00000,-6.01209
35.00000,-6.31034
36.00000,-6.60564
37.00000,-6.89493
38.00000,-7.17479
39.00000,-7.44158
40.00000,-7.69145
41.00000,-7.92039
42.00000,-8.12437
43.00000,-8.29937
44.00000,-8.44154
45.00000,-8.54733
46.00000,-8.61356
47.00000,-8.63757
48.00000,-8.61736
49.00000,-8.55163
