year,emissions
0.00000,-0.56037
1.00000,-1.15762
2.00000,-0.72201
3.00000,-0.67746
4.00000,-0.66457
5.00000,-0.67079
6.00000,-0.68933
7.00000,-0.71699
8.00000,2.66425
9.00000,-0.81838
10.00000,-0.38105
11.00000,-0.45077
12.00000,-0.50623
13.00000,-0.55650
14.00000,-0.60397
15.00000,-0.65047
16.00000,-0.69734
17.00000,-0.74558
18.00000,-0.79590
19.00000,-0.84883
20.00000,-0.90478
21.00000,-0.96403
22.00000,-1.02678
23.00000,-1.09320
24.00000,-1.16337
25.00000,-1.23732
26.00000,-1.31503
27.00000,-1.39640
28.00000,-1.48130
29.00000,-1.56948
30.00000,-1.66064
31.00000,-1.75439
32.00000,-1.85023
33.00000,-1.94757
34.00000,-2.04570
35.00000,-2.14380
36.00000,-2.24095
37.00000,-2.33613
38.00000,-2.42819
39.00000,-2.51592
40.00000,-2.59804
41.00000,-2.67322
42.00000,-2.74009
43.00000,-2.79734
44.00000,-2.84367
45.00000,-2.87789
46.00000,-2.89895
47.00000,-2.90596
48.00000,-2.89826
49.00000,-2.87540
