50.000000,-38.779136
100.000000,-71.433949
150.000000,-104.088762
200.000000,-136.743576
250.000000,-169.398389
300.000000,-202.053202
350.000000,-234.708016
400.000000,-267.362829
450.000000,-300.017642
500.000000,-332.672456
