data,exp,hyp,lin,log
0.00000,0.00000,nan,0.00000,8.15098
1.74569,0.95394,nan,48.91258,13.87690
10.59120,2.81789,nan,97.82515,23.54101
30.40596,6.45995,nan,146.73773,39.69665
64.25758,13.57631,nan,195.65030,66.27723
114.81200,27.48128,nan,244.56288,108.88351
184.47508,54.65081,nan,293.47546,174.40147
275.46493,107.73851,nan,342.38803,268.98892
389.85523,211.46887,nan,391.30061,393.80291
529.60378,414.15208,nan,440.21318,540.31657
696.57247,810.18354,nan,489.12576,690.43011
