year,total,leaf,branch,stem,croot,froot,total
0.00000,2.24869,0.16302,0.50536,1.12483,0.29246,0.16302
1.00000,2.14736,0.01576,0.52894,1.23357,0.32073,0.04836
2.00000,2.30414,0.01863,0.55545,1.35086,0.35122,0.02798
3.00000,2.49241,0.02012,0.58507,1.47746,0.38414,0.02562
4.00000,2.70042,0.02175,0.61801,1.61415,0.41968,0.02682
5.00000,2.92672,0.02352,0.65451,1.76179,0.45807,0.02883
6.00000,3.17223,0.02543,0.69482,1.92129,0.49954,0.03115
7.00000,3.43836,0.02751,0.73919,2.09364,0.54435,0.03368
8.00000,3.72676,0.02975,0.78792,2.27989,0.59277,0.03643
9.00000,2.17581,0.01730,0.44736,1.34123,0.34872,0.02118
10.00000,2.35787,0.01871,0.47905,1.45810,0.37911,0.02291
11.00000,2.55491,0.02023,0.51360,1.58438,0.41194,0.02477
12.00000,2.76807,0.02187,0.55120,1.72082,0.44741,0.02678
13.00000,2.99856,0.02363,0.59207,1.86819,0.48573,0.02894
14.00000,3.24768,0.02554,0.63643,2.02733,0.52711,0.03127
15.00000,3.51681,0.02758,0.68454,2.19913,0.57177,0.03378
16.00000,3.80739,0.02978,0.73664,2.38452,0.61998,0.03647
17.00000,4.12097,0.03214,0.79300,2.58450,0.67197,0.03937
18.00000,4.45914,0.03467,0.85389,2.80009,0.72802,0.04247
19.00000,4.82359,0.03738,0.91960,3.03239,0.78842,0.04579
20.00000,5.21607,0.04027,0.99044,3.28254,0.85346,0.04935
21.00000,5.63839,0.04337,1.06670,3.55173,0.92345,0.05315
22.00000,6.09243,0.04666,1.14870,3.84118,0.99871,0.05719
23.00000,6.58012,0.05017,1.23674,4.15215,1.07956,0.06150
24.00000,7.10339,0.05389,1.33115,4.48593,1.16634,0.06608
25.00000,7.66423,0.05783,1.43224,4.84384,1.25940,0.07093
26.00000,8.26461,0.06200,1.54030,5.22719,1.35907,0.07605
27.00000,8.90646,0.06639,1.65561,5.63730,1.46570,0.08146
28.00000,9.59168,0.07101,1.77846,6.07545,1.57962,0.08715
29.00000,10.32207,0.07584,1.90906,6.54291,1.70116,0.09311
30.00000,11.09933,0.08089,2.04763,7.04085,1.83062,0.09934
