carbon_above,nitrogen_above,DMon_above,DMoff_above,carbon_below,nitrogen_below,DMon_below,DMoff_below
0.08840,0.00155,0.22100,0.19890,0.19774,0.00297,0.49434,0.00000
0.08840,0.00155,0.22100,0.19890,0.19774,0.00297,0.49434,0.00000
0.08840,0.00155,0.22100,0.19890,0.19774,0.00297,0.49434,0.00000
0.08840,0.00155,0.22100,0.19890,0.19774,0.00297,0.49434,0.00000
0.08840,0.00155,0.22100,0.19890,0.19774,0.00297,0.49434,0.00000
0.08840,0.00155,0.22100,0.19890,0.19774,0.00297,0.49434,0.00000
0.08840,0.00155,0.22100,0.19890,0.19774,0.00297,0.49434,0.00000
0.08840,0.00155,0.22100,0.19890,0.19774,0.00297,0.49434,0.00000
0.08840,0.00155,0.22100,0.19890,0.19774,0.00297,0.49434,0.00000
0.08840,0.00155,0.22100,0.19890,0.19774,0.00297,0.49434,0.00000
0.08840,0.00155,0.22100,0.19890,0.19774,0.00297,0.49434,0.00000
0.08840,0.00155,0.22100,0.19890,0.19774,0.00297,0.49434,0.00000
0.08840,0.00155,0.22100,0.19890,0.19774,0.00297,0.49434,0.00000
0.08840,0.00155,0.22100,0.19890,0.19774,0.00297,0.49434,0.00000
0.08840,0.00155,0.22100,0.19890,0.19774,0.00297,0.49434,0.00000
0.08840,0.00155,0.22100,0.19890,0.19774,0.00297,0.49434,0.00000
0.08840,0.00155,0.22100,0.19890,0.19774,0.00297,0.49434,0.00000
0.08840,0.00155,0.22100,0.19890,0.19774,0.00297,0.49434,0.00000
0.08840,0.00155,0.22100,0.19890,0.19774,0.00297,0.49434,0.00000
0.08840,0.00155,0.22100,0.19890,0.19774,0.00297,0.49434,0.00000
0.08840,0.00155,0.22100,0.19890,0.19774,0.00297,0.49434,0.00000
0.08840,0.00155,0.22100,0.19890,0.19774,0.00297,0.49434,0.00000
0.08840,0.00155,0.22100,0.19890,0.19774,0.00297,0.49434,0.00000
0.08840,0.00155,0.22100,0.19890,0.19774,0.00297,0.49434,0.00000
0.08840,0.00155,0.22100,0.19890,0.19774,0.00297,0.49434,0.00000
0.08840,0.00155,0.22100,0.19890,0.19774,0.00297,0.49434,0.00000
0.08840,0.00155,0.22100,0.19890,0.19774,0.00297,0.49434,0.00000
0.08840,0.00155,0.22100,0.19890,0.19774,0.00297,0.49434,0.00000
0.08840,0.00155,0.22100,0.19890,0.19774,0.00297,0.49434,0.00000
0.08840,0.00155,0.22100,0.19890,0.19774,0.00297,0.49434,0.00000
0.08840,0.00155,0.22100,0.19890,0.19774,0.00297,0.49434,0.00000
0.08840,0.00155,0.22100,0.19890,0.19774,0.00297,0.49434,0.00000
0.08840,0.00155,0.22100,0.19890,0.19774,0.00297,0.49434,0.00000
0.08840,0.00155,0.22100,0.19890,0.19774,0.00297,0.49434,0.00000
0.08840,0.00155,0.22100,0.19890,0.19774,0.00297,0.49434,0.00000
0.08840,0.00155,0.22100,0.19890,0.19774,0.00297,0.49434,0.00000
0.08840,0.00155,0.22100,0.19890,0.19774,0.00297,0.49434,0.00000
0.08840,0.00155,0.22100,0.19890,0.19774,0.00297,0.49434,0.00000
0.08840,0.00155,0.22100,0.19890,0.19774,0.00297,0.49434,0.00000
0.08840,0.00155,0.22100,0.19890,0.19774,0.00297,0.49434,0.00000
0.08840,0.00155,0.22100,0.19890,0.19774,0.00297,0.49434,0.00000
0.08840,0.00155,0.22100,0.19890,0.19774,0.00297,0.49434,0.00000
0.08840,0.00155,0.22100,0.19890,0.19774,0.00297,0.49434,0.00000
0.08840,0.00155,0.22100,0.19890,0.19774,0.00297,0.49434,0.00000
0.08840,0.00155,0.22100,0.19890,0.19774,0.00297,0.49434,0.00000
0.08840,0.00155,0.22100,0.19890,0.19774,0.00297,0.49434,0.00000
0.08840,0.00155,0.22100,0.19890,0.19774,0.00297,0.49434,0.00000
0.08840,0.00155,0.22100,0.19890,0.19774,0.00297,0.49434,0.00000
0.08840,0.00155,0.22100,0.19890,0.19774,0.00297,0.49434,0.00000
0.08840,0.00155,0.22100,0.19890,0.19774,0.00297,0.49434,0.00000
