carbon_above,nitrogen_above,DMon_above,DMoff_above,carbon_below,nitrogen_below,DMon_below,DMoff_below
0.06560,0.00098,0.16400,0.14760,0.16262,0.00285,0.40656,0.00000
0.06560,0.00098,0.16400,0.14760,0.16262,0.00285,0.40656,0.00000
0.06560,0.00098,0.16400,0.14760,0.16262,0.00285,0.40656,0.00000
0.06560,0.00098,0.16400,0.14760,0.16262,0.00285,0.40656,0.00000
0.06560,0.00098,0.16400,0.14760,0.16262,0.00285,0.40656,0.00000
0.06560,0.00098,0.16400,0.14760,0.16262,0.00285,0.40656,0.00000
0.06560,0.00098,0.16400,0.14760,0.16262,0.00285,0.40656,0.00000
0.06560,0.00098,0.16400,0.14760,0.16262,0.00285,0.40656,0.00000
0.06560,0.00098,0.16400,0.14760,0.16262,0.00285,0.40656,0.00000
0.06560,0.00098,0.16400,0.14760,0.16262,0.00285,0.40656,0.00000
0.06560,0.00098,0.16400,0.14760,0.16262,0.00285,0.40656,0.00000
0.06560,0.00098,0.16400,0.14760,0.16262,0.00285,0.40656,0.00000
0.06560,0.00098,0.16400,0.14760,0.16262,0.00285,0.40656,0.00000
0.06560,0.00098,0.16400,0.14760,0.16262,0.00285,0.40656,0.00000
0.06560,0.00098,0.16400,0.14760,0.16262,0.00285,0.40656,0.00000
0.06560,0.00098,0.16400,0.14760,0.16262,0.00285,0.40656,0.00000
0.06560,0.00098,0.16400,0.14760,0.16262,0.00285,0.40656,0.00000
0.06560,0.00098,0.16400,0.14760,0.16262,0.00285,0.40656,0.00000
0.06560,0.00098,0.16400,0.14760,0.16262,0.00285,0.40656,0.00000
0.06560,0.00098,0.16400,0.14760,0.16262,0.00285,0.40656,0.00000
0.06560,0.00098,0.16400,0.14760,0.16262,0.00285,0.40656,0.00000
0.06560,0.00098,0.16400,0.14760,0.16262,0.00285,0.40656,0.00000
0.06560,0.00098,0.16400,0.14760,0.16262,0.00285,0.40656,0.00000
0.06560,0.00098,0.16400,0.14760,0.16262,0.00285,0.40656,0.00000
0.06560,0.00098,0.16400,0.14760,0.16262,0.00285,0.40656,0.00000
0.06560,0.00098,0.16400,0.14760,0.16262,0.00285,0.40656,0.00000
0.06560,0.00098,0.16400,0.14760,0.16262,0.00285,0.40656,0.00000
0.06560,0.00098,0.16400,0.14760,0.16262,0.00285,0.40656,0.00000
0.06560,0.00098,0.16400,0.14760,0.16262,0.00285,0.40656,0.00000
0.06560,0.00098,0.16400,0.14760,0.16262,0.00285,0.40656,0.00000
0.06560,0.00098,0.16400,0.14760,0.16262,0.00285,0.40656,0.00000
0.06560,0.00098,0.16400,0.14760,0.16262,0.00285,0.40656,0.00000
0.06560,0.00098,0.16400,0.14760,0.16262,0.00285,0.40656,0.00000
0.06560,0.00098,0.16400,0.14760,0.16262,0.00285,0.40656,0.00000
0.06560,0.00098,0.16400,0.14760,0.16262,0.00285,0.40656,0.00000
0.06560,0.00098,0.16400,0.14760,0.16262,0.00285,0.40656,0.00000
0.06560,0.00098,0.16400,0.14760,0.16262,0.00285,0.40656,0.00000
0.06560,0.00098,0.16400,0.14760,0.16262,0.00285,0.40656,0.00000
0.06560,0.00098,0.16400,0.14760,0.16262,0.00285,0.40656,0.00000
0.06560,0.00098,0.16400,0.14760,0.16262,0.00285,0.40656,0.00000
0.06560,0.00098,0.16400,0.14760,0.16262,0.00285,0.40656,0.00000
0.06560,0.00098,0.16400,0.14760,0.16262,0.00285,0.40656,0.00000
0.06560,0.00098,0.16400,0.14760,0.16262,0.00285,0.40656,0.00000
0.06560,0.00098,0.16400,0.14760,0.16262,0.00285,0.40656,0.00000
0.06560,0.00098,0.16400,0.14760,0.16262,0.00285,0.40656,0.00000
0.06560,0.00098,0.16400,0.14760,0.16262,0.00285,0.40656,0.00000
0.06560,0.00098,0.16400,0.14760,0.16262,0.00285,0.40656,0.00000
0.06560,0.00098,0.16400,0.14760,0.16262,0.00285,0.40656,0.00000
0.06560,0.00098,0.16400,0.14760,0.16262,0.00285,0.40656,0.00000
0.06560,0.00098,0.16400,0.14760,0.16262,0.00285,0.40656,0.00000
