year,soc,dpm,rpm,bio,hum,iom,crop_in,tree_in
0.00000,28.33123,0.02366,3.01324,0.32823,22.11704,2.84906,0.51436,0.00000
1.00000,27.15013,0.02366,2.22646,0.26972,21.78123,2.84906,0.51436,0.00000
2.00000,26.21177,0.02366,1.69079,0.22639,21.42187,2.84906,0.51436,0.00000
3.00000,25.44308,0.02366,1.32607,0.19507,21.04921,2.84906,0.51436,0.00000
4.00000,24.79345,0.02366,1.07776,0.17269,20.67027,2.84906,0.51436,0.00000
5.00000,24.22799,0.02366,0.90870,0.15676,20.28981,2.84906,0.51436,0.00000
6.00000,23.72274,0.02366,0.79359,0.14540,19.91102,2.84906,0.51436,0.00000
7.00000,23.26122,0.02366,0.71522,0.13723,19.53605,2.84906,0.51436,0.00000
8.00000,22.83215,0.02366,0.66187,0.13128,19.16628,2.84906,0.51436,0.00000
9.00000,22.42773,0.02366,0.62554,0.12686,18.80261,2.84906,0.51436,0.00000
10.00000,22.04263,0.02366,0.60080,0.12350,18.44560,2.84906,0.51436,0.00000
11.00000,21.67312,0.02366,0.58396,0.12088,18.09556,2.84906,0.51436,0.00000
12.00000,21.31663,0.02366,0.57250,0.11876,17.75265,2.84906,0.51436,0.00000
13.00000,20.97136,0.02366,0.56469,0.11700,17.41694,2.84906,0.51436,0.00000
14.00000,20.63600,0.02366,0.55938,0.11549,17.08842,2.84906,0.51436,0.00000
15.00000,20.30965,0.02366,0.55576,0.11415,16.76702,2.84906,0.51436,0.00000
16.00000,19.99161,0.02366,0.55329,0.11294,16.45265,2.84906,0.51436,0.00000
17.00000,19.68137,0.02366,0.55162,0.11182,16.14521,2.84906,0.51436,0.00000
18.00000,19.37854,0.02366,0.55048,0.11077,15.84457,2.84906,0.51436,0.00000
19.00000,19.08280,0.02366,0.54970,0.10978,15.55060,2.84906,0.51436,0.00000
20.00000,18.79388,0.02366,0.54917,0.10883,15.26316,2.84906,0.51436,0.00000
21.00000,18.51157,0.02366,0.54881,0.10791,14.98213,2.84906,0.51436,0.00000
22.00000,18.23567,0.02366,0.54856,0.10703,14.70736,2.84906,0.51436,0.00000
23.00000,17.96601,0.02366,0.54840,0.10617,14.43872,2.84906,0.51436,0.00000
24.00000,17.70241,0.02366,0.54828,0.10534,14.17607,2.84906,0.51436,0.00000
25.00000,17.44474,0.02366,0.54820,0.10452,13.91929,2.84906,0.51436,0.00000
26.00000,17.19285,0.02366,0.54815,0.10373,13.66824,2.84906,0.51436,0.00000
27.00000,16.94660,0.02366,0.54812,0.10296,13.42280,2.84906,0.51436,0.00000
28.00000,16.70586,0.02366,0.54809,0.10220,13.18284,2.84906,0.51436,0.00000
29.00000,16.47050,0.02366,0.54807,0.10146,12.94824,2.84906,0.51436,0.00000
30.00000,16.24041,0.02366,0.54806,0.10074,12.71889,2.84906,0.51436,0.00000
31.00000,16.01547,0.02366,0.54806,0.10004,12.49465,2.84906,0.51436,0.00000
32.00000,15.79555,0.02366,0.54805,0.09935,12.27543,2.84906,0.51436,0.00000
33.00000,15.58055,0.02366,0.54805,0.09868,12.06110,2.84906,0.51436,0.00000
34.00000,15.37035,0.02366,0.54804,0.09802,11.85156,2.84906,0.51436,0.00000
35.00000,15.16484,0.02366,0.54804,0.09738,11.64670,2.84906,0.51436,0.00000
36.00000,14.96393,0.02366,0.54804,0.09675,11.44642,2.84906,0.51436,0.00000
37.00000,14.76751,0.02366,0.54804,0.09613,11.25062,2.84906,0.51436,0.00000
38.00000,14.57548,0.02366,0.54804,0.09553,11.05919,2.84906,0.51436,0.00000
39.00000,14.38774,0.02366,0.54804,0.09495,10.87203,2.84906,0.51436,0.00000
40.00000,14.20419,0.02366,0.54804,0.09437,10.68906,2.84906,0.51436,0.00000
41.00000,14.02475,0.02366,0.54804,0.09381,10.51017,2.84906,0.51436,0.00000
42.00000,13.84931,0.02366,0.54804,0.09326,10.33529,2.84906,0.51436,0.00000
43.00000,13.67779,0.02366,0.54804,0.09272,10.16431,2.84906,0.51436,0.00000
44.00000,13.51011,0.02366,0.54804,0.09220,9.99714,2.84906,0.51436,0.00000
45.00000,13.34617,0.02366,0.54804,0.09169,9.83372,2.84906,0.51436,0.00000
46.00000,13.18589,0.02366,0.54804,0.09119,9.67394,2.84906,0.51436,0.00000
47.00000,13.02920,0.02366,0.54804,0.09070,9.51774,2.84906,0.51436,0.00000
48.00000,12.87600,0.02366,0.54804,0.09022,9.36502,2.84906,0.51436,0.00000
49.00000,12.72623,0.02366,0.54804,0.08975,9.21572,2.84906,0.51436,0.00000
50.00000,12.57980,0.02366,0.54804,0.08929,9.06975,2.84906,0.00000,0.00000
