year,emissions
0.00000,-0.37459
1.00000,-1.80525
2.00000,-1.05445
3.00000,-1.04652
4.00000,-1.07611
5.00000,-1.12677
6.00000,-1.19067
7.00000,-1.26513
8.00000,5.48335
9.00000,-1.49245
10.00000,-0.62597
11.00000,-0.77198
12.00000,-0.88837
13.00000,-0.99361
14.00000,-1.09271
15.00000,-1.18949
16.00000,-1.28673
17.00000,-1.38648
18.00000,-1.49025
19.00000,-1.59911
20.00000,-1.71388
21.00000,-1.83516
22.00000,-1.96339
23.00000,-2.09886
24.00000,-2.24176
25.00000,-2.39216
26.00000,-2.55001
27.00000,-2.71514
28.00000,-2.88725
29.00000,-3.06589
30.00000,-3.25043
31.00000,-3.44010
32.00000,-3.63389
33.00000,-3.83062
34.00000,-4.02889
35.00000,-4.22707
36.00000,-4.42330
37.00000,-4.61553
38.00000,-4.80149
39.00000,-4.97875
40.00000,-5.14475
41.00000,-5.29681
42.00000,-5.43223
43.00000,-5.54835
44.00000,-5.64261
45.00000,-5.71261
46.00000,-5.75625
47.00000,-5.77177
48.00000,-5.75781
49.00000,-5.71352
