year,emissions
0.00000,-0.60681
1.00000,-0.99571
2.00000,-0.63890
3.00000,-0.58519
4.00000,-0.56169
5.00000,-0.55679
6.00000,-0.56400
7.00000,-0.57995
8.00000,1.95948
9.00000,-0.64986
10.00000,-0.31982
11.00000,-0.37047
12.00000,-0.41070
13.00000,-0.44722
14.00000,-0.48179
15.00000,-0.51572
16.00000,-0.55000
17.00000,-0.58535
18.00000,-0.62231
19.00000,-0.66126
20.00000,-0.70250
21.00000,-0.74624
22.00000,-0.79263
23.00000,-0.84179
24.00000,-0.89377
25.00000,-0.94861
26.00000,-1.00628
27.00000,-1.06672
28.00000,-1.12981
29.00000,-1.19538
30.00000,-1.26320
31.00000,-1.33297
32.00000,-1.40432
33.00000,-1.47681
34.00000,-1.54990
35.00000,-1.62298
36.00000,-1.69536
37.00000,-1.76628
38.00000,-1.83486
39.00000,-1.90022
40.00000,-1.96137
41.00000,-2.01732
42.00000,-2.06706
43.00000,-2.10959
44.00000,-2.14393
45.00000,-2.16921
46.00000,-2.18462
47.00000,-2.18951
48.00000,-2.18337
49.00000,-2.16587
