total_proj,total_base,total_diff
-71.554533,65.189043,-136.743576

soc_proj,soc_base,soc_diff
48.575444,63.793310,-15.217866,

tree_proj,tree_base,tree_diff
-123.760868,0,-123.760868

fire_proj,fire_base,fire_diff
0,0.462874,-0.462874

nitro_proj,nitro_fire,nitro_diff
3.630891,0.932860,2.698032
