year,emissions
0.00000,0.08985
1.00000,-3.42434
2.00000,-1.88555
3.00000,-1.96919
4.00000,-2.10497
5.00000,-2.26674
6.00000,-2.44402
7.00000,-2.63550
8.00000,12.53108
9.00000,-3.17763
10.00000,-1.23826
11.00000,-1.57500
12.00000,-1.84370
13.00000,-2.08637
14.00000,-2.31456
15.00000,-2.53702
16.00000,-2.76019
17.00000,-2.98875
18.00000,-3.22611
19.00000,-3.47480
20.00000,-3.73664
21.00000,-4.01301
22.00000,-4.30491
23.00000,-4.61301
24.00000,-4.93774
25.00000,-5.27926
26.00000,-5.63747
27.00000,-6.01199
28.00000,-6.40214
29.00000,-6.80691
30.00000,-7.22490
31.00000,-7.65435
32.00000,-8.09303
33.00000,-8.53826
34.00000,-8.98689
35.00000,-9.43524
36.00000,-9.87916
37.00000,-10.31403
38.00000,-10.73474
39.00000,-11.13582
40.00000,-11.51150
41.00000,-11.85577
42.00000,-12.16257
43.00000,-12.42589
44.00000,-12.63995
45.00000,-12.79941
46.00000,-12.89951
47.00000,-12.93627
48.00000,-12.90668
49.00000,-12.80881
