carbon_above,nitrogen_above,DMon_above,DMoff_above,carbon_below,nitrogen_below,DMon_below,DMoff_below
0.32800,0.00492,0.82000,0.41000,0.16262,0.00285,0.40656,0.00000
0.32800,0.00492,0.82000,0.41000,0.16262,0.00285,0.40656,0.00000
0.32800,0.00492,0.82000,0.41000,0.16262,0.00285,0.40656,0.00000
0.32800,0.00492,0.82000,0.41000,0.16262,0.00285,0.40656,0.00000
0.32800,0.00492,0.82000,0.41000,0.16262,0.00285,0.40656,0.00000
0.32800,0.00492,0.82000,0.41000,0.16262,0.00285,0.40656,0.00000
0.32800,0.00492,0.82000,0.41000,0.16262,0.00285,0.40656,0.00000
0.32800,0.00492,0.82000,0.41000,0.16262,0.00285,0.40656,0.00000
0.32800,0.00492,0.82000,0.41000,0.16262,0.00285,0.40656,0.00000
0.32800,0.00492,0.82000,0.41000,0.16262,0.00285,0.40656,0.00000
0.32800,0.00492,0.82000,0.41000,0.16262,0.00285,0.40656,0.00000
0.32800,0.00492,0.82000,0.41000,0.16262,0.00285,0.40656,0.00000
0.32800,0.00492,0.82000,0.41000,0.16262,0.00285,0.40656,0.00000
0.32800,0.00492,0.82000,0.41000,0.16262,0.00285,0.40656,0.00000
0.32800,0.00492,0.82000,0.41000,0.16262,0.00285,0.40656,0.00000
0.32800,0.00492,0.82000,0.41000,0.16262,0.00285,0.40656,0.00000
0.32800,0.00492,0.82000,0.41000,0.16262,0.00285,0.40656,0.00000
0.32800,0.00492,0.82000,0.41000,0.16262,0.00285,0.40656,0.00000
0.32800,0.00492,0.82000,0.41000,0.16262,0.00285,0.40656,0.00000
0.32800,0.00492,0.82000,0.41000,0.16262,0.00285,0.40656,0.00000
0.32800,0.00492,0.82000,0.41000,0.16262,0.00285,0.40656,0.00000
0.32800,0.00492,0.82000,0.41000,0.16262,0.00285,0.40656,0.00000
0.32800,0.00492,0.82000,0.41000,0.16262,0.00285,0.40656,0.00000
0.32800,0.00492,0.82000,0.41000,0.16262,0.00285,0.40656,0.00000
0.32800,0.00492,0.82000,0.41000,0.16262,0.00285,0.40656,0.00000
0.32800,0.00492,0.82000,0.41000,0.16262,0.00285,0.40656,0.00000
0.32800,0.00492,0.82000,0.41000,0.16262,0.00285,0.40656,0.00000
0.32800,0.00492,0.82000,0.41000,0.16262,0.00285,0.40656,0.00000
0.32800,0.00492,0.82000,0.41000,0.16262,0.00285,0.40656,0.00000
0.32800,0.00492,0.82000,0.41000,0.16262,0.00285,0.40656,0.00000
